1 10 20
100 200 125
201 210 89
900 1000 174
100 100 26
210 201 89
11 50 112
99 199 125
1 250 128
2000 3000 217
2222 3333 217
999999 989999 440
99000 100000 328
99999 100001 227
450000 550000 470
500000 500000 152
111111 222222 386
123456 234567 443
1 1000 179
700000 750000 504
600000 666666 509
500000 555555 470
400000 444444 449
300000 333333 384
200000 222222 386
100000 111111 354
800000 888888 525
1 100000 351
100001 200000 383
200001 300000 443
300001 400000 441
400001 500000 449
500001 600000 470
600001 700000 509
700001 800000 504
800001 900000 525
900001 999999 507
832684 393231 509
468872 846802 525
327368 932055 525
224975 869214 525
164770 811645 509
847076 271832 525
372247 248321 441
800055 227447 509
330499 209210 443
763580 193609 509
299298 212286 443
490789 657122 509
711285 653277 504
483099 200750 449
706231 199542 509
480682 649652 509
706451 651080 504
483538 203827 449
711944 207891 509
491668 663275 509
722711 669976 504
505072 227996 449
738751 906018 525
599224 236346 470
717382 242333 509
611199 923980 525
280676 481286 449
625811 714251 509
746606 722875 424
643060 507159 509
315173 967102 525
662945 302703 509
786376 313964 509
685467 100884 509
360217 563464 470
710626 801702 468
836694 815600 450
738421 605157 509
415808 170373 449
768853 411248 509
897558 427783 525
801922 219976 509
481945 687829 509
837628 931341 525
968969 950512 414
875970 745343 525
558630 315832 470
916949 561981 525
150927 583789 470
960565 381256 525
645861 854382 525
106817 203167 383
243432 227612 443
155706 927716 525
743640 503478 509
207232 754901 509
290399 958148 525
247854 859518 525
993139 648718 525
726254 325747 509
347198 790606 509
755972 243295 509
152575 483813 449
337008 612161 470
409271 628338 509
369363 532345 470
217285 324182 443
853036 903848 445
476617 471343 382
888027 826669 525
287268 169824 443
474337 300808 449
549237 319622 470
511965 226266 470
362524 920739 525
100912 603042 470
627130 173175 509
141177 531137 470
443054 776928 509
632760 910549 525
710296 932000 525
675662 841281 525
528857 638391 509
269882 323330 407
798736 796099 375
315420 256698 407
619934 505126 470
812277 641384 504
892449 665472 525
860452 577389 525
716284 377136 509
459945 964712 525
991436 540118 525
510757 903353 525
817907 254418 509
112887 393313 443
195696 420037 449
166336 334591 443
924804 136975 525
671102 727188 504
