1 10 20
100 200 125
201 210 89
900 1000 174
250 251 110
489 499 142
162 185 125
936 899 130
512 554 137
1058 1002 169
280 341 144
951 1021 156
405 490 142
111 203 125
354 454 134
154 264 128
854 734 153
666 531 145
396 536 142
277 428 144
734 894 179
552 381 142
120 306 128
1 191 125
58 260 128
875 1085 174
978 756 179
244 475 144
684 444 145
345 598 142
194 454 144
721 450 171
84 364 144
516 808 171
300 609 144
600 289 144
710 1030 179
964 632 179
178 519 144
207 557 144
340 700 145
425 53 144
10 395 144
501 891 179
854 451 171
50000 50400 265
785522 785932 375
6488 6068 262
24547 24977 264
134 585 144
856434 856894 375
3596 3126 199
78 558 144
1 495 144
999999 999499 290
675 165 145
8888 8368 216
41234 41764 257
96 636 144
242435 242985 319
561 1 144
98122 98692 266
6311 6891 244
326900 326310 247
7777 7177 239
999389 999999 290
25 645 144
8845 8215 234
450 1090 179
650 1300 182
85222 85882 302
700000 700672 367
9690 9010 260
605 1295 182
701 1 145
1000 1710 182
32111 32831 267
65 795 171
658000 657260 354
999249 999999 396
2654 3414 217
80 850 171
577790 577010 390
5000 5790 236
50 850 171
656 1466 182
920 100 179
51111 51941 309
6 846 171
5515 6365 262
888860 888000 295
111 981 179
8210 9090 247
999999 999109 396
905 5 179
74100 75010 325
63 983 179
8000 7070 252
500 1440 182
7 957 179
85220 86180 302
1000 30 179
333 1313 182
991 1 179
855500 856500 388
999999 999999 259
80000 85000 320
221 10221 262
1 7565 262
15201 201 276
1001 889000 525
1 1000 179
154450 3001 375
1000 455000 449
2451 661000 509
254 264645 443
548944 5841 470
35 754216 509
